^C:\Users\AMCV\source\repos\13lesson\13lesson\13lesson.vcxproj
C:\Users\AMCV\source\repos\13lesson\Release\13lesson.ipdb
C:\Users\AMCV\source\repos\13lesson\Release\13lesson.iobj
^C:\Users\AMCV\source\repos\13lesson\13lesson\13lesson.vcxproj
C:\Users\AMCV\source\repos\13lesson\Release\13lesson.ipdb
C:\Users\AMCV\source\repos\13lesson\Release\13lesson.iobj
^C:\Users\AMCV\source\repos\13lesson\13lesson\13lesson.vcxproj
C:\Users\AMCV\source\repos\13lesson\Release\13lesson.ipdb
C:\Users\AMCV\source\repos\13lesson\Release\13lesson.iobj
