^C:\USERS\AMCV\SOURCE\REPOS\13LESSON\13LESSON\13LESSON.CPP|C:\USERS\AMCV\SOURCE\REPOS\13LESSON\13LESSON\HELPERS.CPP|C:\USERS\AMCV\SOURCE\REPOS\13LESSON\13LESSON\MAIN.CPP
C:\USERS\AMCV\SOURCE\REPOS\13LESSON\13LESSON\RELEASE\VC142.PDB
C:\USERS\AMCV\SOURCE\REPOS\13LESSON\13LESSON\RELEASE\13LESSON.OBJ
^C:\USERS\AMCV\SOURCE\REPOS\13LESSON\13LESSON\HELPERS.CPP|C:\USERS\AMCV\SOURCE\REPOS\13LESSON\13LESSON\MAIN.CPP
C:\USERS\AMCV\SOURCE\REPOS\13LESSON\13LESSON\RELEASE\VC142.PDB
C:\USERS\AMCV\SOURCE\REPOS\13LESSON\13LESSON\RELEASE\MAIN.OBJ
C:\USERS\AMCV\SOURCE\REPOS\13LESSON\13LESSON\RELEASE\HELPERS.OBJ
^C:\USERS\AMCV\SOURCE\REPOS\13LESSON\13LESSON\13LESSON.CPP|C:\USERS\AMCV\SOURCE\REPOS\13LESSON\13LESSON\MAIN.CPP
C:\USERS\AMCV\SOURCE\REPOS\13LESSON\13LESSON\RELEASE\VC142.PDB
C:\USERS\AMCV\SOURCE\REPOS\13LESSON\13LESSON\RELEASE\MAIN.OBJ
C:\USERS\AMCV\SOURCE\REPOS\13LESSON\13LESSON\RELEASE\13LESSON.OBJ
^C:\USERS\AMCV\SOURCE\REPOS\13LESSON\13LESSON\MAIN.CPP
C:\USERS\AMCV\SOURCE\REPOS\13LESSON\13LESSON\RELEASE\VC142.PDB
C:\USERS\AMCV\SOURCE\REPOS\13LESSON\13LESSON\RELEASE\MAIN.OBJ
